{
  "name": "Clone counter",
  "description": "Adds a counter in the editor which shows the total amount of clones.",
  "credits": [
    {
      "name": "Jeffalo"
    }
  ],
  "dynamicEnable": true,
  "dynamicDisable": true,
  "versionAdded": "1.2.0",
  "userscripts": [
    {
      "url": "userscript.js",
      "matches": ["https://scratch.mit.edu/projects/*"]
    }
  ],
  "userstyles": [
    {
      "url": "style.css",
      "matches": ["https://scratch.mit.edu/projects/*"]
    }
  ],
  "tags": ["editor", "projectPlayer"],
  "enabledByDefault": true
}
